%YAML 1.1
%TAG !u! tag:unity3d.com,2011:
--- !u!1 &100008
GameObject:
  m_ObjectHideFlags: 0
  m_CorrespondingSourceObject: {fileID: 0}
  m_PrefabInstance: {fileID: 0}
  m_PrefabAsset: {fileID: 0}
  serializedVersion: 6
  m_Component:
  - component: {fileID: 400008}
  m_Layer: 0
  m_Name: Eff_Burst_1_oneShot
  m_TagString: Untagged
  m_Icon: {fileID: 0}
  m_NavMeshLayer: 0
  m_StaticEditorFlags: 0
  m_IsActive: 1
--- !u!4 &400008
Transform:
  m_ObjectHideFlags: 0
  m_CorrespondingSourceObject: {fileID: 0}
  m_PrefabInstance: {fileID: 0}
  m_PrefabAsset: {fileID: 0}
  m_GameObject: {fileID: 100008}
  m_LocalRotation: {x: 0, y: 0, z: 0, w: 1}
  m_LocalPosition: {x: 0, y: 0, z: 0}
  m_LocalScale: {x: 1, y: 1, z: 1}
  m_Children:
  - {fileID: 400006}
  m_Father: {fileID: 0}
  m_RootOrder: 0
  m_LocalEulerAnglesHint: {x: 0, y: 0, z: 0}
--- !u!1001 &3663523508372703991
PrefabInstance:
  m_ObjectHideFlags: 0
  serializedVersion: 2
  m_Modification:
    m_TransformParent: {fileID: 400008}
    m_Modifications:
    - target: {fileID: 3663523508372671569, guid: 0511b1ee64f93d84489eb49208ad2139,
        type: 3}
      propertyPath: m_Name
      value: par1
      objectReference: {fileID: 0}
    - target: {fileID: 3663523508373098609, guid: 0511b1ee64f93d84489eb49208ad2139,
        type: 3}
      propertyPath: m_LocalPosition.x
      value: 0
      objectReference: {fileID: 0}
    - target: {fileID: 3663523508373098609, guid: 0511b1ee64f93d84489eb49208ad2139,
        type: 3}
      propertyPath: m_LocalPosition.y
      value: 0
      objectReference: {fileID: 0}
    - target: {fileID: 3663523508373098609, guid: 0511b1ee64f93d84489eb49208ad2139,
        type: 3}
      propertyPath: m_LocalPosition.z
      value: 0
      objectReference: {fileID: 0}
    - target: {fileID: 3663523508373098609, guid: 0511b1ee64f93d84489eb49208ad2139,
        type: 3}
      propertyPath: m_LocalRotation.x
      value: 0
      objectReference: {fileID: 0}
    - target: {fileID: 3663523508373098609, guid: 0511b1ee64f93d84489eb49208ad2139,
        type: 3}
      propertyPath: m_LocalRotation.y
      value: 0
      objectReference: {fileID: 0}
    - target: {fileID: 3663523508373098609, guid: 0511b1ee64f93d84489eb49208ad2139,
        type: 3}
      propertyPath: m_LocalRotation.z
      value: 0
      objectReference: {fileID: 0}
    - target: {fileID: 3663523508373098609, guid: 0511b1ee64f93d84489eb49208ad2139,
        type: 3}
      propertyPath: m_LocalRotation.w
      value: 1
      objectReference: {fileID: 0}
    - target: {fileID: 3663523508373098609, guid: 0511b1ee64f93d84489eb49208ad2139,
        type: 3}
      propertyPath: m_RootOrder
      value: 0
      objectReference: {fileID: 0}
    - target: {fileID: 3663523508373098609, guid: 0511b1ee64f93d84489eb49208ad2139,
        type: 3}
      propertyPath: m_LocalEulerAnglesHint.x
      value: 0
      objectReference: {fileID: 0}
    - target: {fileID: 3663523508373098609, guid: 0511b1ee64f93d84489eb49208ad2139,
        type: 3}
      propertyPath: m_LocalEulerAnglesHint.y
      value: 0
      objectReference: {fileID: 0}
    - target: {fileID: 3663523508373098609, guid: 0511b1ee64f93d84489eb49208ad2139,
        type: 3}
      propertyPath: m_LocalEulerAnglesHint.z
      value: 0
      objectReference: {fileID: 0}
    m_RemovedComponents: []
  m_SourcePrefab: {fileID: 100100000, guid: 0511b1ee64f93d84489eb49208ad2139, type: 3}
--- !u!4 &400006 stripped
Transform:
  m_CorrespondingSourceObject: {fileID: 3663523508373098609, guid: 0511b1ee64f93d84489eb49208ad2139,
    type: 3}
  m_PrefabInstance: {fileID: 3663523508372703991}
  m_PrefabAsset: {fileID: 0}
